Statistical approaches to epidemic forecasting
…
```r
library(epipredict)
jhu <- case_death_rate_subset %>% filter(time_value > max(time_value) - 60)
canned <- arx_forecaster(jhu, outcome = "death_rate", 
                         predictors = c("case_rate", "death_rate"))
canned$predictions
```

```
## An `epi_df` object, 56 x 6 with metadata:
## * geo_type  = state
## * time_type = day
## * as_of     = 2022-05-31 12:08:25
## 
## # A tibble: 56 × 6
##    geo_value time_value  .pred         .pred_distn forecast_date target_date
##  * <chr>     <date>      <dbl>              <dist> <date>        <date>     
##  1 ak        2021-12-31 0.397  [0.05, 0.95]<q-rng> 2021-12-31    2022-01-07 
##  2 al        2021-12-31 0.262  [0.05, 0.95]<q-rng> 2021-12-31    2022-01-07 
##  3 ar        2021-12-31 0.410  [0.05, 0.95]<q-rng> 2021-12-31    2022-01-07 
##  4 as        2021-12-31 0.0983 [0.05, 0.95]<q-rng> 2021-12-31    2022-01-07 
##  5 az        2021-12-31 0.610  [0.05, 0.95]<q-rng> 2021-12-31    2022-01-07 
##  6 ca        2021-12-31 0.283  [0.05, 0.95]<q-rng> 2021-12-31    2022-01-07 
##  7 co        2021-12-31 0.500  [0.05, 0.95]<q-rng> 2021-12-31    2022-01-07 
##  8 ct        2021-12-31 0.518  [0.05, 0.95]<q-rng> 2021-12-31    2022-01-07 
##  9 dc        2021-12-31 0.797  [0.05, 0.95]<q-rng> 2021-12-31    2022-01-07 
## 10 de        2021-12-31 0.605  [0.05, 0.95]<q-rng> 2021-12-31    2022-01-07 
## # … with 46 more rows
```
…
```
## An `epi_df` object, 56 x 6 with metadata:
## * geo_type  = state
## * time_type = day
## * as_of     = 2022-05-31 12:08:25
## 
## # A tibble: 56 × 6
##    geo_value time_value  .pred         .pred_distn forecast_date target_date
##  * <chr>     <date>      <dbl>              <dist> <date>        <date>     
##  1 ak        2021-12-31 0.567  [0.05, 0.95]<q-rng> 2021-12-31    2022-01-14 
##  2 al        2021-12-31 0.535  [0.05, 0.95]<q-rng> 2021-12-31    2022-01-14 
##  3 ar        2021-12-31 0.637  [0.05, 0.95]<q-rng> 2021-12-31    2022-01-14 
##  4 as        2021-12-31 0.0824 [0.05, 0.95]<q-rng> 2021-12-31    2022-01-14 
##  5 az        2021-12-31 0.730  [0.05, 0.95]<q-rng> 2021-12-31    2022-01-14 
##  6 ca        2021-12-31 0.528  [0.05, 0.95]<q-rng> 2021-12-31    2022-01-14 
##  7 co        2021-12-31 0.791  [0.05, 0.95]<q-rng> 2021-12-31    2022-01-14 
##  8 ct        2021-12-31 0.944  [0.05, 0.95]<q-rng> 2021-12-31    2022-01-14 
##  9 dc        2021-12-31 1.91   [0.05, 0.95]<q-rng> 2021-12-31    2022-01-14 
## 10 de        2021-12-31 0.932  [0.05, 0.95]<q-rng> 2021-12-31    2022-01-14 
## # … with 46 more rows
```
…
